%YAML 1.1
%TAG !u! tag:unity3d.com,2011:
--- !u!21 &2100000
Material:
  serializedVersion: 6
  m_ObjectHideFlags: 0
  m_PrefabParentObject: {fileID: 0}
  m_PrefabInternal: {fileID: 0}
  m_Name: Roads_alpha
  m_Shader: {fileID: 10707, guid: 0000000000000000f000000000000000, type: 0}
  m_ShaderKeywords: 
  m_LightmapFlags: 5
  m_EnableInstancingVariants: 0
  m_DoubleSidedGI: 0
  m_CustomRenderQueue: 2000
  stringTagMap: {}
  disabledShaderPasses: []
  m_SavedProperties:
    serializedVersion: 3
    m_TexEnvs:
    - _Cube:
        m_Texture: {fileID: 0}
        m_Scale: {x: 1, y: 1}
        m_Offset: {x: 0, y: 0}
    - _EmissionMap:
        m_Texture: {fileID: 0}
        m_Scale: {x: 1, y: 1}
        m_Offset: {x: 0, y: 0}
    - _Illum:
        m_Texture: {fileID: 0}
        m_Scale: {x: 1, y: 1}
        m_Offset: {x: 0, y: 0}
    - _MainTex:
        m_Texture: {fileID: 2800000, guid: 6f89f285822a1d74ab738c9b0754036c, type: 3}
        m_Scale: {x: 1, y: 1}
        m_Offset: {x: 0, y: 0}
    - _V_CW_Cube:
        m_Texture: {fileID: 0}
        m_Scale: {x: 1, y: 1}
        m_Offset: {x: 0, y: 0}
    - _V_CW_IBL_Cube:
        m_Texture: {fileID: 0}
        m_Scale: {x: 1, y: 1}
        m_Offset: {x: 0, y: 0}
    - _V_CW_LightRampTex:
        m_Texture: {fileID: 0}
        m_Scale: {x: 1, y: 1}
        m_Offset: {x: 0, y: 0}
    - _V_CW_NormalMap:
        m_Texture: {fileID: 0}
        m_Scale: {x: 1, y: 1}
        m_Offset: {x: 0, y: 0}
    - _V_CW_SecondaryNormalMap:
        m_Texture: {fileID: 0}
        m_Scale: {x: 1, y: 1}
        m_Offset: {x: 0, y: 0}
    - _V_CW_Specular_Lookup:
        m_Texture: {fileID: 0}
        m_Scale: {x: 1, y: 1}
        m_Offset: {x: 0, y: 0}
    m_Floats:
    - V_CW_D_OPTIONS: 0
    - V_CW_Label_Albedo: 0
    - V_CW_Label_Cartoon: 0
    - V_CW_Label_Modes: 0
    - V_CW_Label_Tag: 0
    - V_CW_Label_UnityDefaults: 0
    - V_CW_MV_MAT: 1
    - V_CW_Rendering_Mode: 0
    - V_CW_TAG: 0
    - V_CW_Texture_Mix_Mode: 0
    - V_CW_W_OPTIONS: 0
    - _Cutoff: 0.79850745
    - _Dist: 100
    - _Emission: 1
    - _FogDensity: 111
    - _Shininess: 0.078125
    - _V_CW_Camera_Bend_Offset: 0
    - _V_CW_Emission_Strength: 1
    - _V_CW_Fog_Density: 1
    - _V_CW_Fog_End: 100
    - _V_CW_Fog_Start: 0
    - _V_CW_Fresnel_Bias: 0
    - _V_CW_IBL_Contrast: 1
    - _V_CW_IBL_Intensity: 1
    - _V_CW_NormalMapStrength: 1
    - _V_CW_NormalMap_UV_Scale: 1
    - _V_CW_OutlineWidth: 1
    - _V_CW_ReflectStrengthAlphaOffset: 0
    - _V_CW_Rim_Bias: 0.2
    - _V_CW_Rim_Power: 3
    - _V_CW_SecondaryNormalMap_UV_Scale: 1
    - _V_CW_SpecularOffset: 0
    - _V_CW_Specular_Intensity: 1
    - _V_CW_X_Bend_Size: 0
    - _V_CW_Y_Bend_Size: 0
    - _V_CW_Z_Bend_Bias: 0
    - _V_CW_Z_Bend_Size: 0
    m_Colors:
    - _Color: {r: 1, g: 1, b: 1, a: 1}
    - _Emission: {r: 0, g: 0, b: 0, a: 0}
    - _EmissionColor: {r: 1, g: 1, b: 1, a: 1}
    - _QOffset: {r: 110, g: 5, b: 0, a: 0}
    - _ReflectColor: {r: 1, g: 1, b: 1, a: 1}
    - _SpecColor: {r: 0.5, g: 0.5, b: 0.5, a: 1}
    - _V_CW_Emission_Color: {r: 1, g: 1, b: 1, a: 1}
    - _V_CW_Fog_Color: {r: 1, g: 1, b: 1, a: 1}
    - _V_CW_MainTex_Scroll: {r: 0, g: 0, b: 0, a: 0}
    - _V_CW_OutlineColor: {r: 0, g: 0, b: 0, a: 1}
    - _V_CW_ReflectColor: {r: 1, g: 1, b: 1, a: 1}
    - _V_CW_Rim_Color: {r: 1, g: 1, b: 1, a: 1}
